{"current_page":1,"data":[{"uuid":"991dff49-bd73-4fd6-a787-4c585392a0dd","contact":{"name":"334543534534","is_exist":false},"category":{"name":"anna 1","icon":"default"},"bill_number":"INV - e6 Ju","amount":5000,"tax":{"name":null,"tax_rate":0,"tax_type":null,"tax_amount":0,"pre_tax_amount":5000},"currency_code":"SGD","invoice_date":"2023-04-05T00:00:00+08:00","due_date":"2023-04-30T00:00:00+08:00","payment_date":null,"mapping_account":null,"accounting_invoice":{"error":null,"state":{"reference_code":"ASRE","state":"reviewing"},"is_payment_synced":false,"is_payment_authenticated":true},"authorizations":{"approve":true,"sync":false,"retry_payment_sync":false},"state_code":"BPIT","payload":{"email":null,"action":"SendMoneyOutsideAction","amount":5000,"bank_name":"CitiBank Singapore Limited (CSL)","frequency":"day","person_id":410,"budget_uuid":null,"business_id":186,"description":null,"source_type":"business","source_uuid":"98a69785-592c-41ba-951a-b6ff565c2ef6","email_sender":null,"category_name":"anna 1","currency_code":"SGD","fx_quote_uuid":null,"miscellaneous":[],"counterparty_uuid":"98accaef-92df-44a1-80ef-2acb4d392f96","next_payment_date":null,"debit_account_uuid":"98a6978c-0604-45e1-a9e9-97dfd0503522","email_message_uuid":null,"recipient_bank_code":"CITISGSLXXX","is_send_notification":false,"recipient_account_name":"334543534534","bill_pay_submission_uuid":"991dff49-bd73-4fd6-a787-4c585392a0dd","recipient_account_number":"334543534534"},"next_payment_date":null,"amount_pre_tax":5000,"amount_tax":0,"line_item_count":2,"line_item_description_count":0,"line_item_mapping_account_count":0,"line_item_tax_count":0,"line_item_tracking_category_count":null,"line_item_amount":5000,"line_item_error":"Some line items are missing mandatory values. Please update the line items before proceeding"},{"uuid":"991df922-6161-4f03-af7f-bc2a14630150","contact":{"name":"334543534534","is_exist":false},"category":{"name":"anna 1","icon":"default"},"bill_number":"INV - uS dw","amount":5000,"tax":{"name":"Tax Exempt","tax_rate":0,"tax_type":"NONE","tax_amount":0,"pre_tax_amount":5000},"currency_code":"SGD","invoice_date":"2023-04-05T00:00:00+08:00","due_date":"2023-04-30T00:00:00+08:00","payment_date":null,"mapping_account":{"name":"Owner A Drawings","account_id":"1b8bc6b0-ba49-4c77-ac64-5b76798dbbfe","code":"880","label":"880 - Owner A Drawings","tax":[{"name":"Tax Exempt","tax_rate":0,"tax_type":"NONE"}]},"accounting_invoice":{"error":null,"state":{"reference_code":"ASRE","state":"reviewing"},"is_payment_synced":false,"is_payment_authenticated":true},"authorizations":{"approve":true,"sync":false,"retry_payment_sync":false},"state_code":"BPIT","payload":{"email":null,"action":"SendMoneyOutsideAction","amount":5000,"bank_name":"CitiBank Singapore Limited (CSL)","frequency":"day","person_id":410,"budget_uuid":null,"business_id":186,"description":null,"source_type":"business","source_uuid":"98a69785-592c-41ba-951a-b6ff565c2ef6","email_sender":null,"category_name":"anna 1","currency_code":"SGD","fx_quote_uuid":null,"miscellaneous":[],"counterparty_uuid":"98accaef-92df-44a1-80ef-2acb4d392f96","next_payment_date":null,"debit_account_uuid":"98a6978c-0604-45e1-a9e9-97dfd0503522","email_message_uuid":null,"recipient_bank_code":"CITISGSLXXX","is_send_notification":false,"recipient_account_name":"334543534534","bill_pay_submission_uuid":"991df922-6161-4f03-af7f-bc2a14630150","recipient_account_number":"334543534534"},"next_payment_date":null,"amount_pre_tax":50,"amount_tax":0,"line_item_count":2,"line_item_description_count":0,"line_item_mapping_account_count":2,"line_item_tax_count":2,"line_item_tracking_category_count":null,"line_item_amount":50,"line_item_error":"Line item total does not match the bill amount. Please update the line items before proceeding"},{"uuid":"991df763-833b-488c-89d8-873db81947e5","contact":{"name":"334543534534","is_exist":false},"category":{"name":"anna 1","icon":"default"},"bill_number":"INV - oN yW","amount":5000,"tax":{"name":null,"tax_rate":0,"tax_type":null,"tax_amount":0,"pre_tax_amount":5000},"currency_code":"SGD","invoice_date":"2023-04-05T00:00:00+08:00","due_date":"2023-04-30T00:00:00+08:00","payment_date":null,"mapping_account":null,"accounting_invoice":{"error":null,"state":{"reference_code":"ASRE","state":"reviewing"},"is_payment_synced":false,"is_payment_authenticated":true},"authorizations":{"approve":true,"sync":false,"retry_payment_sync":false},"state_code":"BPIT","payload":{"email":null,"action":"SendMoneyOutsideAction","amount":5000,"bank_name":"CitiBank Singapore Limited (CSL)","frequency":"day","person_id":410,"budget_uuid":null,"business_id":186,"description":null,"source_type":"business","source_uuid":"98a69785-592c-41ba-951a-b6ff565c2ef6","email_sender":null,"category_name":"anna 1","currency_code":"SGD","fx_quote_uuid":null,"miscellaneous":[],"counterparty_uuid":"98accaef-92df-44a1-80ef-2acb4d392f96","next_payment_date":null,"debit_account_uuid":"98a6978c-0604-45e1-a9e9-97dfd0503522","email_message_uuid":null,"recipient_bank_code":"CITISGSLXXX","is_send_notification":false,"recipient_account_name":"334543534534","bill_pay_submission_uuid":"991df763-833b-488c-89d8-873db81947e5","recipient_account_number":"334543534534"},"next_payment_date":null,"amount_pre_tax":5000,"amount_tax":0,"line_item_count":2,"line_item_description_count":0,"line_item_mapping_account_count":0,"line_item_tax_count":0,"line_item_tracking_category_count":null,"line_item_amount":5000,"line_item_error":"Some line items are missing mandatory values. Please update the line items before proceeding"},{"uuid":"991df640-422d-40f4-a488-881809bd287e","contact":{"name":"334543534534","is_exist":false},"category":{"name":"anna 1","icon":"default"},"bill_number":"INV - CA Id","amount":5000,"tax":{"name":null,"tax_rate":0,"tax_type":null,"tax_amount":0,"pre_tax_amount":5000},"currency_code":"SGD","invoice_date":"2023-04-05T00:00:00+08:00","due_date":"2023-04-30T00:00:00+08:00","payment_date":null,"mapping_account":null,"accounting_invoice":{"error":null,"state":{"reference_code":"ASRE","state":"reviewing"},"is_payment_synced":false,"is_payment_authenticated":true},"authorizations":{"approve":true,"sync":false,"retry_payment_sync":false},"state_code":"BPIT","payload":{"email":null,"action":"SendMoneyOutsideAction","amount":5000,"bank_name":"CitiBank Singapore Limited (CSL)","frequency":"day","person_id":410,"budget_uuid":null,"business_id":186,"description":null,"source_type":"business","source_uuid":"98a69785-592c-41ba-951a-b6ff565c2ef6","email_sender":null,"category_name":"anna 1","currency_code":"SGD","fx_quote_uuid":null,"miscellaneous":[],"counterparty_uuid":"98accaef-92df-44a1-80ef-2acb4d392f96","next_payment_date":null,"debit_account_uuid":"98a6978c-0604-45e1-a9e9-97dfd0503522","email_message_uuid":null,"recipient_bank_code":"CITISGSLXXX","is_send_notification":false,"recipient_account_name":"334543534534","bill_pay_submission_uuid":"991df640-422d-40f4-a488-881809bd287e","recipient_account_number":"334543534534"},"next_payment_date":null,"amount_pre_tax":5000,"amount_tax":0,"line_item_count":2,"line_item_description_count":0,"line_item_mapping_account_count":0,"line_item_tax_count":0,"line_item_tracking_category_count":null,"line_item_amount":5000,"line_item_error":"Some line items are missing mandatory values. Please update the line items before proceeding"},{"uuid":"991df4cd-58b6-4635-9199-ed52152d9769","contact":{"name":"334543534534","is_exist":false},"category":{"name":"anna 1","icon":"default"},"bill_number":"INV - Iz QV","amount":5000,"tax":{"name":"Tax Exempt","tax_rate":0,"tax_type":"NONE","tax_amount":0,"pre_tax_amount":5000},"currency_code":"SGD","invoice_date":"2023-04-05T00:00:00+08:00","due_date":"2023-04-30T00:00:00+08:00","payment_date":null,"mapping_account":{"name":"Owner A Drawings","account_id":"1b8bc6b0-ba49-4c77-ac64-5b76798dbbfe","code":"880","label":"880 - Owner A Drawings","tax":[{"name":"Tax Exempt","tax_rate":0,"tax_type":"NONE"}]},"accounting_invoice":{"error":null,"state":{"reference_code":"ASRE","state":"reviewing"},"is_payment_synced":false,"is_payment_authenticated":true},"authorizations":{"approve":true,"sync":false,"retry_payment_sync":false},"state_code":"BPIT","payload":{"email":null,"action":"SendMoneyOutsideAction","amount":5000,"bank_name":"CitiBank Singapore Limited (CSL)","frequency":"day","person_id":410,"budget_uuid":null,"business_id":186,"description":null,"source_type":"business","source_uuid":"98a69785-592c-41ba-951a-b6ff565c2ef6","email_sender":null,"category_name":"anna 1","currency_code":"SGD","fx_quote_uuid":null,"miscellaneous":[],"counterparty_uuid":"98accaef-92df-44a1-80ef-2acb4d392f96","next_payment_date":null,"debit_account_uuid":"98a6978c-0604-45e1-a9e9-97dfd0503522","email_message_uuid":null,"recipient_bank_code":"CITISGSLXXX","is_send_notification":false,"recipient_account_name":"334543534534","bill_pay_submission_uuid":"991df4cd-58b6-4635-9199-ed52152d9769","recipient_account_number":"334543534534"},"next_payment_date":null,"amount_pre_tax":5000,"amount_tax":0,"line_item_count":2,"line_item_description_count":0,"line_item_mapping_account_count":2,"line_item_tax_count":2,"line_item_tracking_category_count":null,"line_item_amount":5000,"line_item_error":null},{"uuid":"991df417-bf83-48bd-b063-c43064cded6f","contact":{"name":"334543534534","is_exist":false},"category":{"name":"anna 1","icon":"default"},"bill_number":"INV - d0 Nz","amount":5000,"tax":{"name":"Tax Exempt","tax_rate":0,"tax_type":"NONE","tax_amount":0,"pre_tax_amount":5000},"currency_code":"SGD","invoice_date":"2023-04-05T00:00:00+08:00","due_date":"2023-04-30T00:00:00+08:00","payment_date":null,"mapping_account":{"name":"Owner A Drawings","account_id":"1b8bc6b0-ba49-4c77-ac64-5b76798dbbfe","code":"880","label":"880 - Owner A Drawings","tax":[{"name":"Tax Exempt","tax_rate":0,"tax_type":"NONE"}]},"accounting_invoice":{"error":null,"state":{"reference_code":"ASRE","state":"reviewing"},"is_payment_synced":false,"is_payment_authenticated":true},"authorizations":{"approve":true,"sync":false,"retry_payment_sync":false},"state_code":"BPIT","payload":{"email":null,"action":"SendMoneyOutsideAction","amount":5000,"bank_name":"CitiBank Singapore Limited (CSL)","frequency":"day","person_id":410,"budget_uuid":null,"business_id":186,"description":null,"source_type":"business","source_uuid":"98a69785-592c-41ba-951a-b6ff565c2ef6","email_sender":null,"category_name":"anna 1","currency_code":"SGD","fx_quote_uuid":null,"miscellaneous":[],"counterparty_uuid":"98accaef-92df-44a1-80ef-2acb4d392f96","next_payment_date":null,"debit_account_uuid":"98a6978c-0604-45e1-a9e9-97dfd0503522","email_message_uuid":null,"recipient_bank_code":"CITISGSLXXX","is_send_notification":false,"recipient_account_name":"334543534534","bill_pay_submission_uuid":"991df417-bf83-48bd-b063-c43064cded6f","recipient_account_number":"334543534534"},"next_payment_date":null,"amount_pre_tax":5000,"amount_tax":0,"line_item_count":2,"line_item_description_count":0,"line_item_mapping_account_count":2,"line_item_tax_count":2,"line_item_tracking_category_count":null,"line_item_amount":5000,"line_item_error":null},{"uuid":"991dc9c5-a4d1-4d3c-92ad-5db8584b7c56","contact":{"name":"334543534534","is_exist":false},"category":{"name":"anna 1","icon":"default"},"bill_number":"INV - 5d t8","amount":5000,"tax":{"name":null,"tax_rate":0,"tax_type":null,"tax_amount":0,"pre_tax_amount":5000},"currency_code":"SGD","invoice_date":"2023-04-05T00:00:00+08:00","due_date":"2023-04-30T00:00:00+08:00","payment_date":null,"mapping_account":null,"accounting_invoice":{"error":null,"state":{"reference_code":"ASRE","state":"reviewing"},"is_payment_synced":false,"is_payment_authenticated":true},"authorizations":{"approve":true,"sync":false,"retry_payment_sync":false},"state_code":"BPIT","payload":{"email":null,"action":"SendMoneyOutsideAction","amount":5000,"bank_name":"CitiBank Singapore Limited (CSL)","frequency":"day","person_id":410,"budget_uuid":null,"business_id":186,"description":null,"source_type":"business","source_uuid":"98a69785-592c-41ba-951a-b6ff565c2ef6","email_sender":null,"category_name":"anna 1","currency_code":"SGD","fx_quote_uuid":null,"miscellaneous":[],"counterparty_uuid":"98accaef-92df-44a1-80ef-2acb4d392f96","next_payment_date":null,"debit_account_uuid":"98a6978c-0604-45e1-a9e9-97dfd0503522","email_message_uuid":null,"recipient_bank_code":"CITISGSLXXX","is_send_notification":false,"recipient_account_name":"334543534534","bill_pay_submission_uuid":"991dc9c5-a4d1-4d3c-92ad-5db8584b7c56","recipient_account_number":"334543534534"},"next_payment_date":null,"amount_pre_tax":5000,"amount_tax":0,"line_item_count":0,"line_item_description_count":0,"line_item_mapping_account_count":0,"line_item_tax_count":0,"line_item_tracking_category_count":null,"line_item_amount":0,"line_item_error":null},{"uuid":"991dca04-de23-4aa9-b0bf-4bfb1d13e1c1","contact":{"name":"334543534534","is_exist":false},"category":{"name":"anna 1","icon":"default"},"bill_number":"INV - iA Cm","amount":5000,"tax":{"name":null,"tax_rate":0,"tax_type":null,"tax_amount":0,"pre_tax_amount":5000},"currency_code":"SGD","invoice_date":"2023-04-05T00:00:00+08:00","due_date":"2023-04-30T00:00:00+08:00","payment_date":null,"mapping_account":null,"accounting_invoice":{"error":null,"state":{"reference_code":"ASRE","state":"reviewing"},"is_payment_synced":false,"is_payment_authenticated":true},"authorizations":{"approve":true,"sync":false,"retry_payment_sync":false},"state_code":"BPIT","payload":{"email":null,"action":"SendMoneyOutsideAction","amount":5000,"bank_name":"CitiBank Singapore Limited (CSL)","frequency":"day","person_id":410,"budget_uuid":null,"business_id":186,"description":null,"source_type":"business","source_uuid":"98a69785-592c-41ba-951a-b6ff565c2ef6","email_sender":null,"category_name":"anna 1","currency_code":"SGD","fx_quote_uuid":null,"miscellaneous":[],"counterparty_uuid":"98accaef-92df-44a1-80ef-2acb4d392f96","next_payment_date":null,"debit_account_uuid":"98a6978c-0604-45e1-a9e9-97dfd0503522","email_message_uuid":null,"recipient_bank_code":"CITISGSLXXX","is_send_notification":false,"recipient_account_name":"334543534534","bill_pay_submission_uuid":"991dca04-de23-4aa9-b0bf-4bfb1d13e1c1","recipient_account_number":"334543534534"},"next_payment_date":null,"amount_pre_tax":5000,"amount_tax":0,"line_item_count":2,"line_item_description_count":0,"line_item_mapping_account_count":0,"line_item_tax_count":0,"line_item_tracking_category_count":null,"line_item_amount":5000,"line_item_error":"Some line items are missing mandatory values. Please update the line items before proceeding"},{"uuid":"99132840-4f91-4e59-adff-4239f105c8ce","contact":{"name":"334543534534","is_exist":false},"category":{"name":"anna 1","icon":"default"},"bill_number":"INV - t7 RW","amount":5000,"tax":{"name":null,"tax_rate":0,"tax_type":null,"tax_amount":0,"pre_tax_amount":5000},"currency_code":"SGD","invoice_date":"2023-04-05T00:00:00+08:00","due_date":"2023-04-30T00:00:00+08:00","payment_date":null,"mapping_account":null,"accounting_invoice":{"error":null,"state":{"reference_code":"ASRE","state":"reviewing"},"is_payment_synced":false,"is_payment_authenticated":true},"authorizations":{"approve":true,"sync":false,"retry_payment_sync":false},"state_code":"BPIT","payload":{"email":null,"action":"SendMoneyOutsideAction","amount":5000,"bank_name":"CitiBank Singapore Limited (CSL)","frequency":"day","person_id":410,"budget_uuid":null,"business_id":186,"description":null,"source_type":"business","source_uuid":"98a69785-592c-41ba-951a-b6ff565c2ef6","email_sender":null,"category_name":"anna 1","currency_code":"SGD","fx_quote_uuid":null,"miscellaneous":[],"counterparty_uuid":"98accaef-92df-44a1-80ef-2acb4d392f96","next_payment_date":null,"debit_account_uuid":"98a6978c-0604-45e1-a9e9-97dfd0503522","email_message_uuid":null,"recipient_bank_code":"CITISGSLXXX","is_send_notification":false,"recipient_account_name":"334543534534","bill_pay_submission_uuid":"99132840-4f91-4e59-adff-4239f105c8ce","recipient_account_number":"334543534534"},"next_payment_date":null,"amount_pre_tax":5000,"amount_tax":0,"line_item_count":2,"line_item_description_count":0,"line_item_mapping_account_count":0,"line_item_tax_count":0,"line_item_tracking_category_count":null,"line_item_amount":5000,"line_item_error":"Some line items are missing mandatory values. Please update the line items before proceeding"},{"uuid":"990b5207-41db-4807-abf8-74f3dc2c0d7b","contact":{"name":"334543534534","is_exist":false},"category":{"name":"anna 1","icon":"default"},"bill_number":"INV - Ae ki","amount":5000,"tax":{"name":null,"tax_rate":0,"tax_type":null,"tax_amount":0,"pre_tax_amount":5000},"currency_code":"SGD","invoice_date":"2023-04-05T00:00:00+08:00","due_date":"2023-04-30T00:00:00+08:00","payment_date":null,"mapping_account":null,"accounting_invoice":{"error":null,"state":{"reference_code":"ASRE","state":"reviewing"},"is_payment_synced":false,"is_payment_authenticated":true},"authorizations":{"approve":true,"sync":false,"retry_payment_sync":false},"state_code":"BPIT","payload":{"email":null,"action":"SendMoneyOutsideAction","amount":5000,"bank_name":"CitiBank Singapore Limited (CSL)","frequency":"day","person_id":410,"budget_uuid":null,"business_id":186,"description":null,"source_type":"business","source_uuid":"98a69785-592c-41ba-951a-b6ff565c2ef6","email_sender":null,"category_name":"anna 1","currency_code":"SGD","fx_quote_uuid":null,"miscellaneous":[],"counterparty_uuid":"98accaef-92df-44a1-80ef-2acb4d392f96","next_payment_date":null,"debit_account_uuid":"98a6978c-0604-45e1-a9e9-97dfd0503522","email_message_uuid":null,"recipient_bank_code":"CITISGSLXXX","is_send_notification":false,"recipient_account_name":"334543534534","bill_pay_submission_uuid":"990b5207-41db-4807-abf8-74f3dc2c0d7b","recipient_account_number":"334543534534"},"next_payment_date":null,"amount_pre_tax":5000,"amount_tax":0,"line_item_count":0,"line_item_description_count":0,"line_item_mapping_account_count":0,"line_item_tax_count":0,"line_item_tracking_category_count":null,"line_item_amount":0,"line_item_error":null}],"first_page_url":"https:\/\/example.com\/v1\/accounting\/bills?page=1","from":1,"last_page":9,"last_page_url":"https:\/\/example.com\/v1\/accounting\/bills?page=9","links":[{"url":null,"label":"&laquo; Previous","active":false},{"url":"https:\/\/example.com\/v1\/accounting\/bills?page=1","label":"1","active":true},{"url":"https:\/\/example.com\/v1\/accounting\/bills?page=2","label":"2","active":false},{"url":"https:\/\/example.com\/v1\/accounting\/bills?page=3","label":"3","active":false},{"url":"https:\/\/example.com\/v1\/accounting\/bills?page=4","label":"4","active":false},{"url":"https:\/\/example.com\/v1\/accounting\/bills?page=5","label":"5","active":false},{"url":"https:\/\/example.com\/v1\/accounting\/bills?page=6","label":"6","active":false},{"url":"https:\/\/example.com\/v1\/accounting\/bills?page=7","label":"7","active":false},{"url":"https:\/\/example.com\/v1\/accounting\/bills?page=8","label":"8","active":false},{"url":"https:\/\/example.com\/v1\/accounting\/bills?page=9","label":"9","active":false},{"url":"https:\/\/example.com\/v1\/accounting\/bills?page=2","label":"Next &raquo;","active":false}],"next_page_url":"https:\/\/example.com\/v1\/accounting\/bills?page=2","path":"https:\/\/example.com\/v1\/accounting\/bills","per_page":10,"prev_page_url":null,"to":10,"total":84}